^D:\PAMSI\PROJECT2\PROJECT2\BELLMAN_ALGORITHMS.CPP
/c /ZI /JMC /nologo /W3 /WX- /diagnostics:classic /sdl /Od /Oy- /D _MBCS /Gm- /EHsc /RTC1 /MDd /GS /fp:precise /permissive- /Zc:wchar_t /Zc:forScope /Zc:inline /Fo"DEBUG\\" /Fd"DEBUG\VC141.PDB" /Gd /TP /analyze- /FC D:\PAMSI\PROJECT2\PROJECT2\BELLMAN_ALGORITHMS.CPP
^D:\PAMSI\PROJECT2\PROJECT2\LIST_GRAPH.CPP
/c /ZI /JMC /nologo /W3 /WX- /diagnostics:classic /sdl /Od /Oy- /D _MBCS /Gm- /EHsc /RTC1 /MDd /GS /fp:precise /permissive- /Zc:wchar_t /Zc:forScope /Zc:inline /Fo"DEBUG\\" /Fd"DEBUG\VC141.PDB" /Gd /TP /analyze- /FC D:\PAMSI\PROJECT2\PROJECT2\LIST_GRAPH.CPP
^D:\PAMSI\PROJECT2\PROJECT2\MATRIX_GRAPH.CPP
/c /ZI /JMC /nologo /W3 /WX- /diagnostics:classic /sdl /Od /Oy- /D _MBCS /Gm- /EHsc /RTC1 /MDd /GS /fp:precise /permissive- /Zc:wchar_t /Zc:forScope /Zc:inline /Fo"DEBUG\\" /Fd"DEBUG\VC141.PDB" /Gd /TP /analyze- /FC D:\PAMSI\PROJECT2\PROJECT2\MATRIX_GRAPH.CPP
^D:\PAMSI\PROJECT2\PROJECT2\TESTS_AND_FUN.CPP
/c /ZI /JMC /nologo /W3 /WX- /diagnostics:classic /sdl /Od /Oy- /D _MBCS /Gm- /EHsc /RTC1 /MDd /GS /fp:precise /permissive- /Zc:wchar_t /Zc:forScope /Zc:inline /Fo"DEBUG\\" /Fd"DEBUG\VC141.PDB" /Gd /TP /analyze- /FC D:\PAMSI\PROJECT2\PROJECT2\TESTS_AND_FUN.CPP
