^D:\PAMSI\PROJECT2\PROJECT2\DEBUG\BELLMAN_ALGORITHMS.OBJ|D:\PAMSI\PROJECT2\PROJECT2\DEBUG\LIST_GRAPH.OBJ|D:\PAMSI\PROJECT2\PROJECT2\DEBUG\MATRIX_GRAPH.OBJ|D:\PAMSI\PROJECT2\PROJECT2\DEBUG\TESTS_AND_FUN.OBJ
D:\PAMSI\PROJECT2\DEBUG\PROJECT2.ILK
D:\PAMSI\PROJECT2\DEBUG\PROJECT2.EXE
D:\PAMSI\PROJECT2\DEBUG\PROJECT2.PDB
